data/SDS00003.CSV

Record Length,9000,,Source,CH1,CH2
Sample Interval,CH1:0.0000002000000 CH2:0.0000002000000,,Second,Volt,Volt
Vertical Units,CH1:V CH2:V,,-0.00090000000,-9.80000,8.40000
Vertical Scale,CH1:5.00 CH2:5.00,,-0.00089980000,-9.80000,8.40000
Vertical Offset,CH1:4.40000 CH2:-10.00000,,-0.00089960000,-9.80000,8.40000
Horizontal Units,s,,-0.00089940006,-9.80000,8.40000
Horizontal Scale,0.0001000000,,-0.00089920006,-9.80000,8.40000
Model Number,SDS1072CML,,-0.00089900006,-10.00000,8.40000
Serial Number,SDS100P2150690,,-0.00089880006,-9.80000,8.40000
Software Version,5.01.02.29,,-0.00089860006,-9.80000,8.40000
,,,-0.00089840000,-10.00000,8.40000
,,,-0.00089820000,-9.80000,8.40000
,,,-0.00089800000,-10.00000,8.40000
,,,-0.00089780000,-10.00000,8.40000
,,,-0.00089760000,-9.80000,8.40000
,,,-0.00089740000,-9.80000,8.40000
,,,-0.00089720000,-9.80000,8.40000
,,,-0.00089700000,-10.00000,8.40000
,,,-0.00089680000,-10.00000,8.40000
,,,-0.00089660000,-9.80000,8.40000
,,,-0.00089640000,-9.80000,8.40000
,,,-0.00089620000,-9.80000,8.40000
,,,-0.00089600000,-9.80000,8.40000
,,,-0.00089580000,-10.00000,8.40000
,,,-0.00089560000,-9.80000,8.40000
,,,-0.00089540000,-9.80000,8.40000
,,,-0.00089520000,-9.80000,8.40000
,,,-0.00089500000,-9.80000,8.40000
,,,-0.00089480000,-9.80000,8.40000
,,,-0.00089460000,-9.80000,8.40000
,,,-0.00089440000,-10.00000,8.40000
,,,-0.00089420000,-9.80000,8.40000
,,,-0.00089400000,-9.80000,8.40000
,,,-0.00089380000,-9.80000,8.40000
,,,-0.00089360000,-10.00000,8.40000
,,,-0.00089340000,-10.00000,8.40000
,,,-0.00089320000,-10.00000,8.40000
,,,-0.00089300000,-9.80000,8.40000
,,,-0.00089280000,-10.00000,8.40000
,,,-0.00089260000,-9.80000,8.40000
,,,-0.00089240000,-9.80000,8.40000
,,,-0.00089220000,-9.80000,8.40000
,,,-0.00089200000,-9.80000,8.40000
,,,-0.00089180006,-9.80000,8.40000
,,,-0.00089160006,-10.00000,8.40000
,,,-0.00089140006,-9.80000,8.40000
,,,-0.00089120006,-9.80000,8.40000
,,,-0.00089100006,-9.80000,8.40000
,,,-0.00089080000,-10.00000,8.40000
,,,-0.00089060000,-9.80000,8.40000
,,,-0.00089040000,-9.80000,8.40000
,,,-0.00089020000,-9.80000,8.60000
,,,-0.00089000000,-9.80000,8.40000
,,,-0.00088980000,-10.00000,8.40000
,,,-0.00088960000,-10.00000,8.40000
,,,-0.00088940000,-9.80000,8.40000
,,,-0.00088920000,-10.00000,8.40000
,,,-0.00088900000,-10.00000,8.40000
,,,-0.00088880000,-9.80000,8.40000
,,,-0.00088860000,-9.80000,8.40000
,,,-0.00088840000,-9.80000,8.60000
,,,-0.00088820000,-9.80000,8.40000
,,,-0.00088800000,-9.80000,8.40000
,,,-0.00088780000,-9.80000,8.40000
,,,-0.00088760000,-9.80000,8.40000
,,,-0.00088740000,-9.80000,8.40000
,,,-0.00088720000,-9.80000,8.40000
,,,-0.00088700000,-9.80000,8.60000
,,,-0.00088680000,-9.80000,8.40000
,,,-0.00088660000,-9.80000,8.40000
,,,-0.00088640000,-9.80000,8.40000
,,,-0.00088620000,-9.80000,8.60000
,,,-0.00088600000,-10.00000,8.40000
,,,-0.00088580000,-10.00000,8.40000
,,,-0.00088560000,-9.80000,8.40000
,,,-0.00088540000,-9.80000,8.40000
,,,-0.00088520000,-9.80000,8.60000
,,,-0.00088500000,-9.80000,8.60000
,,,-0.00088480000,-9.80000,8.40000
,,,-0.00088460000,-9.80000,8.40000
,,,-0.00088440000,-9.80000,8.40000
,,,-0.00088420006,-9.80000,8.40000
,,,-0.00088400006,-9.80000,8.40000
,,,-0.00088380006,-9.80000,8.40000
,,,-0.00088360006,-9.80000,8.40000
,,,-0.00088340006,-9.80000,8.60000
,,,-0.00088320000,-9.80000,8.40000
,,,-0.00088300000,-10.00000,8.40000
,,,-0.00088280000,-9.80000,8.40000
,,,-0.00088260000,-10.00000,8.40000
,,,-0.00088240000,-10.00000,8.40000
,,,-0.00088220000,-10.00000,8.40000
,,,-0.00088200000,-9.80000,8.40000
,,,-0.00088180000,-10.00000,8.60000
,,,-0.00088160000,-10.00000,8.40000
,,,-0.00088140000,-9.80000,8.40000
,,,-0.00088120000,-9.80000,8.40000
,,,-0.00088100000,-10.00000,8.60000
,,,-0.00088080000,-10.00000,8.40000
,,,-0.00088060000,-9.80000,8.40000
,,,-0.00088040000,-9.80000,8.40000
,,,-0.00088020000,-9.80000,8.40000
,,,-0.00088000000,-9.80000,8.40000
,,,-0.00087980000,-9.80000,8.60000
,,,-0.00087960000,-9.80000,8.40000
,,,-0.00087940000,-9.80000,8.40000
,,,-0.00087920000,-9.80000,8.40000
,,,-0.00087900000,-9.80000,8.40000
,,,-0.00087880000,-9.80000,8.40000
,,,-0.00087860000,-9.80000,8.40000
,,,-0.00087840000,-9.80000,8.40000
,,,-0.00087820000,-9.80000,8.40000
,,,-0.00087800000,-9.80000,8.40000
,,,-0.00087780000,-9.80000,8.40000
,,,-0.00087760000,-9.80000,8.60000
,,,-0.00087740000,-10.00000,8.40000
,,,-0.00087720000,-9.80000,8.60000
,,,-0.00087700000,-9.80000,8.40000
,,,-0.00087680000,-10.00000,8.40000
,,,-0.00087660006,-9.80000,8.40000
,,,-0.00087640006,-9.80000,8.60000
,,,-0.00087620006,-9.80000,8.40000
,,,-0.00087600006,-9.80000,8.40000
,,,-0.00087580006,-9.80000,8.40000
,,,-0.00087560006,-9.80000,8.40000
,,,-0.00087540000,-10.00000,8.40000
,,,-0.00087520000,-9.80000,8.40000
,,,-0.00087500000,-9.80000,8.60000
,,,-0.00087480000,-10.00000,8.40000
,,,-0.00087460000,-9.80000,8.40000
,,,-0.00087440000,-9.80000,8.40000
,,,-0.00087420000,-9.80000,8.40000
,,,-0.00087400000,-9.80000,8.60000
,,,-0.00087380000,-9.80000,8.60000
,,,-0.00087360000,-10.00000,8.60000
,,,-0.00087340000,-9.80000,8.40000
,,,-0.00087320000,-9.80000,8.60000
,,,-0.00087300000,-9.80000,8.40000
,,,-0.00087280000,-10.00000,8.40000
,,,-0.00087260000,-9.80000,8.40000
,,,-0.00087240000,-9.80000,8.60000
,,,-0.00087220000,-9.80000,8.40000
,,,-0.00087200000,-9.80000,8.40000
,,,-0.00087180000,-9.80000,8.40000
,,,-0.00087160000,-9.80000,8.40000
,,,-0.00087140000,-9.80000,8.40000
,,,-0.00087120000,-9.80000,8.40000
,,,-0.00087100000,-9.80000,8.40000
,,,-0.00087080000,-10.00000,8.60000
,,,-0.00087060000,-9.80000,8.40000
,,,-0.00087040000,-9.80000,8.40000
,,,-0.00087020000,-9.80000,8.60000
,,,-0.00087000000,-10.00000,8.40000
,,,-0.00086980000,-9.80000,8.40000
,,,-0.00086960000,-9.80000,8.40000
,,,-0.00086940000,-9.80000,8.60000
,,,-0.00086920000,-9.80000,8.40000
,,,-0.00086900000,-9.80000,8.40000
,,,-0.00086880006,-9.80000,8.40000
,,,-0.00086860006,-9.80000,8.60000
,,,-0.00086840006,-9.80000,8.40000
,,,-0.00086820006,-10.00000,8.40000
,,,-0.00086800006,-10.00000,8.40000
,,,-0.00086780000,-9.80000,8.40000
,,,-0.00086760000,-10.00000,8.40000
,,,-0.00086740000,-9.80000,8.40000
,,,-0.00086720000,-10.00000,8.40000
,,,-0.00086700000,-9.80000,8.40000
,,,-0.00086680000,-9.80000,8.60000
,,,-0.00086660000,-9.80000,8.60000
,,,-0.00086640000,-10.00000,8.40000
,,,-0.00086620000,-9.80000,8.40000
,,,-0.00086600000,-9.80000,8.40000
,,,-0.00086580000,-9.80000,8.60000
,,,-0.00086560000,-9.80000,8.60000
,,,-0.00086540000,-10.00000,8.40000
,,,-0.00086520000,-9.80000,8.40000
,,,-0.00086500000,-9.80000,8.40000
,,,-0.00086480000,-9.80000,8.40000
,,,-0.00086460000,-9.80000,8.40000
,,,-0.00086440000,-9.80000,8.40000
,,,-0.00086420000,-9.80000,8.60000
,,,-0.00086400000,-10.00000,8.40000
,,,-0.00086380000,-9.80000,8.40000
,,,-0.00086360000,-9.80000,8.40000
,,,-0.00086340000,-9.80000,8.60000
,,,-0.00086320000,-9.80000,8.40000
,,,-0.00086300000,-10.00000,8.40000
,,,-0.00086280000,-9.80000,8.40000
,,,-0.00086260000,-9.80000,8.40000
,,,-0.00086240000,-9.80000,8.40000
,,,-0.00086220000,-9.80000,8.60000
,,,-0.00086200000,-10.00000,8.40000
,,,-0.00086180000,-9.80000,8.40000
,,,-0.00086160000,-9.80000,8.40000
,,,-0.00086140000,-9.80000,8.40000
,,,-0.00086120006,-10.00000,8.60000
,,,-0.00086100006,-9.80000,8.40000
,,,-0.00086080006,-9.80000,8.40000
,,,-0.00086060006,-9.80000,8.60000
,,,-0.00086040006,-9.80000,8.40000
,,,-0.00086020000,-9.80000,8.60000
,,,-0.00086000000,-9.80000,8.40000
,,,-0.00085980000,-9.80000,8.40000
,,,-0.00085960000,-9.80000,8.40000
,,,-0.00085940000,-9.80000,8.60000
,,,-0.00085920000,-9.80000,8.40000
,,,-0.00085900000,-10.00000,8.40000
,,,-0.00085880000,-9.80000,8.40000
,,,-0.00085860000,-9.80000,8.60000
,,,-0.00085840000,-9.80000,8.40000
,,,-0.00085820000,-9.80000,8.40000
,,,-0.00085800000,-9.80000,8.40000
,,,-0.00085780000,-9.80000,8.60000
,,,-0.00085760000,-9.80000,8.60000
,,,-0.00085740000,-9.80000,8.60000
,,,-0.00085720000,-9.80000,8.40000
,,,-0.00085700000,-9.80000,8.40000
,,,-0.00085680000,-9.80000,8.40000
,,,-0.00085660000,-9.80000,8.60000
,,,-0.00085640000,-9.80000,8.40000
,,,-0.00085620000,-10.00000,8.40000
,,,-0.00085600000,-9.80000,8.40000
,,,-0.00085580000,-9.80000,8.40000
,,,-0.00085560000,-9.80000,8.40000
,,,-0.00085540000,-10.00000,8.40000
,,,-0.00085520000,-9.80000,8.40000
,,,-0.00085500000,-9.80000,8.40000
,,,-0.00085480000,-9.80000,8.40000
,,,-0.00085460000,-10.00000,8.40000
,,,-0.00085440000,-9.80000,8.40000
,,,-0.00085420000,-10.00000,8.60000
,,,-0.00085400000,-10.00000,8.60000
,,,-0.00085380000,-9.80000,8.60000
,,,-0.00085360006,-9.80000,8.60000
,,,-0.00085340006,-9.80000,8.40000
,,,-0.00085320006,-9.80000,8.60000
,,,-0.00085300006,-10.00000,8.60000
,,,-0.00085280006,-9.80000,8.40000
,,,-0.00085260000,-9.80000,8.40000
,,,-0.00085240000,-9.80000,8.40000
,,,-0.00085220000,-9.80000,8.40000
,,,-0.00085200000,-10.00000,8.40000
,,,-0.00085180000,-10.00000,8.40000
,,,-0.00085160000,-9.80000,8.40000
,,,-0.00085140000,-9.80000,8.40000
,,,-0.00085120000,-9.80000,8.40000
,,,-0.00085100000,-9.80000,8.40000
,,,-0.00085080000,-10.00000,8.40000
,,,-0.00085060000,-9.80000,8.40000
,,,-0.00085040000,-10.00000,8.40000
,,,-0.00085020000,-9.80000,8.40000
,,,-0.00085000000,-9.80000,8.40000
,,,-0.00084980000,-9.80000,8.40000
,,,-0.00084960000,-9.80000,8.40000
,,,-0.00084940000,-9.80000,8.40000
,,,-0.00084920000,-10.00000,8.40000
,,,-0.00084900000,-9.80000,8.40000
,,,-0.00084880000,-9.80000,8.60000
,,,-0.00084860000,-9.80000,8.40000
,,,-0.00084840000,-9.80000,8.40000
,,,-0.00084820000,-9.80000,8.40000
,,,-0.00084800000,-10.00000,8.40000
,,,-0.00084780000,-9.80000,8.40000
,,,-0.00084760000,-10.00000,8.40000
,,,-0.00084740000,-9.80000,8.40000
,,,-0.00084720000,-9.80000,8.40000
,,,-0.00084700000,-9.80000,8.40000
,,,-0.00084680000,-9.80000,8.40000
,,,-0.00084660000,-9.80000,8.60000
,,,-0.00084640000,-9.80000,8.40000
,,,-0.00084620000,-9.80000,8.60000
,,,-0.00084600000,-9.80000,8.40000
,,,-0.00084580006,-9.80000,8.60000
,,,-0.00084560006,-9.80000,8.40000
,,,-0.00084540006,-9.80000,8.60000
,,,-0.00084520006,-10.00000,8.40000
,,,-0.00084500006,-9.80000,8.40000
,,,-0.00084480000,-9.80000,8.40000
,,,-0.00084460000,-10.00000,8.60000
,,,-0.00084440000,-9.80000,8.40000
,,,-0.00084420000,-10.00000,8.60000
,,,-0.00084400000,-9.80000,8.40000
,,,-0.00084380000,-9.80000,8.40000
,,,-0.00084360000,-10.00000,8.40000
,,,-0.00084340000,-9.80000,8.40000
,,,-0.00084320000,-9.80000,8.40000
,,,-0.00084300000,-10.00000,8.40000
,,,-0.00084280000,-9.80000,8.40000
,,,-0.00084260000,-9.80000,8.40000
,,,-0.00084240000,-9.80000,8.60000
,,,-0.00084220000,-10.00000,8.40000
,,,-0.00084200000,-10.00000,8.40000
,,,-0.00084180000,-9.80000,8.40000
,,,-0.00084160000,-10.00000,8.40000
,,,-0.00084140000,-9.80000,8.60000
,,,-0.00084120000,-9.80000,8.40000
,,,-0.00084100000,-9.80000,8.40000
,,,-0.00084080000,-10.00000,8.60000
,,,-0.00084060000,-9.80000,8.60000
,,,-0.00084040000,-9.80000,8.40000
,,,-0.00084020000,-9.80000,8.40000
,,,-0.00084000000,-9.80000,8.40000
,,,-0.00083980000,-9.80000,8.40000
,,,-0.00083960000,-9.80000,8.60000
,,,-0.00083940000,-10.00000,8.40000
,,,-0.00083920000,-9.80000,8.40000
,,,-0.00083900000,-9.80000,8.40000
,,,-0.00083880000,-9.80000,8.60000
,,,-0.00083860000,-9.80000,8.60000
,,,-0.00083840000,-9.80000,8.40000
,,,-0.00083820006,-9.80000,8.60000
,,,-0.00083800006,-9.80000,8.40000
,,,-0.00083780006,-9.80000,8.40000
,,,-0.00083760006,-9.80000,8.40000
,,,-0.00083740006,-9.80000,8.40000
,,,-0.00083720000,-9.80000,8.40000
,,,-0.00083700000,-9.80000,8.40000
,,,-0.00083680000,-9.80000,8.40000
,,,-0.00083660000,-9.80000,8.40000
,,,-0.00083640000,-9.80000,8.40000
,,,-0.00083620000,-9.80000,8.40000
,,,-0.00083600000,-10.00000,8.40000
,,,-0.00083580000,-9.80000,8.40000
,,,-0.00083560000,-9.80000,8.40000
,,,-0.00083540000,-9.80000,8.40000
,,,-0.00083520000,-9.80000,8.60000
,,,-0.00083500000,-9.80000,8.60000
,,,-0.00083480000,-9.80000,8.40000
,,,-0.00083460000,-9.80000,8.40000
,,,-0.00083440000,-9.80000,8.40000
,,,-0.00083420000,-9.80000,8.40000
,,,-0.00083400000,-9.80000,8.40000
,,,-0.00083380000,-9.80000,8.40000
,,,-0.00083360000,-9.80000,8.40000
,,,-0.00083340000,-9.80000,8.40000
,,,-0.00083320000,-9.80000,8.60000
,,,-0.00083300000,-9.80000,8.40000
,,,-0.00083280000,-10.00000,8.40000
,,,-0.00083260000,-9.80000,8.40000
,,,-0.00083240000,-9.80000,8.40000
,,,-0.00083220000,-9.80000,8.40000
,,,-0.00083200000,-9.80000,8.60000
,,,-0.00083180000,-9.80000,8.60000
,,,-0.00083160000,-9.80000,8.40000
,,,-0.00083140000,-9.80000,8.40000
,,,-0.00083120000,-9.80000,8.40000
,,,-0.00083100000,-9.80000,8.40000
,,,-0.00083080000,-10.00000,8.40000
,,,-0.00083060006,-9.80000,8.40000
,,,-0.00083040006,-10.00000,8.40000
,,,-0.00083020006,-9.80000,8.40000
,,,-0.00083000006,-9.80000,8.40000
,,,-0.00082980006,-9.80000,8.60000
,,,-0.00082960000,-9.80000,8.40000
,,,-0.00082940000,-9.80000,8.40000
,,,-0.00082920000,-9.80000,8.60000
,,,-0.00082900000,-9.80000,8.40000
,,,-0.00082880000,-10.00000,8.40000
,,,-0.00082860000,-9.80000,8.60000
,,,-0.00082840000,-9.80000,8.40000
,,,-0.00082820000,-9.80000,8.40000
,,,-0.00082800000,-9.80000,8.40000
,,,-0.00082780000,-9.80000,8.40000
,,,-0.00082760000,-10.00000,8.40000
,,,-0.00082740000,-10.00000,8.60000
,,,-0.00082720000,-9.80000,8.60000
,,,-0.00082700000,-9.80000,8.40000
,,,-0.00082680000,-9.80000,8.60000
,,,-0.00082660000,-9.80000,8.40000
,,,-0.00082640000,-9.80000,8.40000
,,,-0.00082620000,-9.80000,8.40000
,,,-0.00082600000,-9.80000,8.40000
,,,-0.00082580000,-9.80000,8.40000
,,,-0.00082560000,-9.80000,8.40000
,,,-0.00082540000,-10.00000,8.40000
,,,-0.00082520000,-9.80000,8.60000
,,,-0.00082500000,-9.80000,8.40000
,,,-0.00082480000,-9.80000,8.40000
,,,-0.00082460000,-9.80000,8.40000
,,,-0.00082440000,-10.00000,8.40000
,,,-0.00082420000,-9.80000,8.40000
,,,-0.00082400000,-9.80000,8.40000
,,,-0.00082380000,-9.80000,8.60000
,,,-0.00082360000,-9.80000,8.60000
,,,-0.00082340000,-10.00000,8.40000
,,,-0.00082320000,-9.80000,8.60000
,,,-0.00082300006,-10.00000,8.40000
,,,-0.00082280006,-10.00000,8.60000
,,,-0.00082260006,-9.80000,8.60000
,,,-0.00082240006,-9.80000,8.40000
,,,-0.00082220006,-9.80000,8.60000
,,,-0.00082200000,-10.00000,8.40000
,,,-0.00082180000,-10.00000,8.40000
,,,-0.00082160000,-9.80000,8.40000
,,,-0.00082140000,-9.80000,8.60000
,,,-0.00082120000,-9.80000,8.60000
,,,-0.00082100000,-9.80000,8.40000
,,,-0.00082080000,-9.80000,8.40000
,,,-0.00082060000,-9.80000,8.60000
,,,-0.00082040000,-9.80000,8.40000
,,,-0.00082020000,-9.80000,8.40000
,,,-0.00082000000,-9.80000,8.60000
,,,-0.00081980000,-9.80000,8.40000
,,,-0.00081960000,-9.80000,8.60000
,,,-0.00081940000,-9.80000,8.40000
,,,-0.00081920000,-9.80000,8.40000
,,,-0.00081900000,-10.00000,8.40000
,,,-0.00081880000,-10.00000,8.60000
,,,-0.00081860000,-10.00000,8.40000
,,,-0.00081840000,-9.80000,8.60000
,,,-0.00081820000,-10.00000,8.40000
,,,-0.00081800000,-9.80000,8.60000
,,,-0.00081780000,-9.80000,8.40000
,,,-0.00081760000,-9.80000,8.40000
,,,-0.00081740000,-9.80000,8.60000
,,,-0.00081720000,-10.00000,8.60000
,,,-0.00081700000,-9.80000,8.40000
,,,-0.00081680000,-9.80000,8.60000
,,,-0.00081660000,-10.00000,8.40000
,,,-0.00081640000,-9.80000,8.40000
,,,-0.00081620000,-10.00000,8.40000
,,,-0.00081600000,-9.80000,8.40000
,,,-0.00081580000,-9.80000,8.40000
,,,-0.00081560000,-10.00000,8.40000
,,,-0.00081540000,-9.80000,8.40000
,,,-0.00081520006,-10.00000,8.40000
,,,-0.00081500006,-10.00000,8.40000
,,,-0.00081480006,-9.80000,8.60000
,,,-0.00081460006,-9.80000,8.40000
,,,-0.00081440000,-10.00000,8.40000
,,,-0.00081420000,-10.00000,8.60000
,,,-0.00081400000,-9.80000,8.60000
,,,-0.00081380000,-9.80000,8.40000
,,,-0.00081360000,-9.80000,8.40000
,,,-0.00081340000,-9.80000,8.60000
,,,-0.00081320000,-9.80000,8.40000
,,,-0.00081300000,-9.80000,8.40000
,,,-0.00081280000,-9.80000,8.40000
,,,-0.00081260000,-9.80000,8.40000
,,,-0.00081240000,-9.80000,8.60000
,,,-0.00081220000,-9.80000,8.40000
,,,-0.00081200000,-9.80000,8.40000
,,,-0.00081180000,-9.80000,8.40000
,,,-0.00081160000,-9.80000,8.40000
,,,-0.00081140000,-9.80000,8.60000
,,,-0.00081120000,-9.80000,8.40000
,,,-0.00081100000,-9.80000,8.40000
,,,-0.00081080000,-9.80000,8.40000
,,,-0.00081060000,-9.80000,8.40000
,,,-0.00081040000,-9.80000,8.40000
,,,-0.00081020000,-9.80000,8.40000
,,,-0.00081000000,-9.80000,8.60000
,,,-0.00080980000,-9.80000,8.40000
,,,-0.00080960000,-9.80000,8.40000
,,,-0.00080940000,-9.80000,8.40000
,,,-0.00080920000,-9.80000,8.40000
,,,-0.00080900000,-9.80000,8.40000
,,,-0.00080880000,-9.80000,8.40000
,,,-0.00080860000,-9.80000,8.60000
,,,-0.00080840000,-9.80000,8.60000
,,,-0.00080820000,-9.80000,8.40000
,,,-0.00080800000,-10.00000,8.40000
,,,-0.00080780000,-9.80000,8.40000
,,,-0.00080760006,-10.00000,8.60000
,,,-0.00080740006,-9.80000,8.40000
,,,-0.00080720006,-9.80000,8.40000
,,,-0.00080700006,-9.80000,8.40000
,,,-0.00080680006,-10.00000,8.40000
,,,-0.00080660000,-9.80000,8.40000
,,,-0.00080640000,-9.80000,8.40000
,,,-0.00080620000,-9.80000,8.40000
,,,-0.00080600000,-9.80000,8.40000
,,,-0.00080580000,-9.80000,8.40000
,,,-0.00080560000,-10.00000,8.40000
,,,-0.00080540000,-9.80000,8.40000
,,,-0.00080520000,-9.80000,8.40000
,,,-0.00080500000,-9.80000,8.60000
,,,-0.00080480000,-9.80000,8.40000
,,,-0.00080460000,-9.80000,8.40000
,,,-0.00080440000,-9.80000,8.40000
,,,-0.00080420000,-9.80000,8.60000
,,,-0.00080400000,-9.80000,8.40000
,,,-0.00080380000,-10.00000,8.40000
,,,-0.00080360000,-9.80000,8.40000
,,,-0.00080340000,-9.80000,8.40000
,,,-0.00080320000,-9.80000,8.40000
,,,-0.00080300000,-9.80000,8.40000
,,,-0.00080280000,-9.80000,8.40000
,,,-0.00080260000,-10.00000,8.40000
,,,-0.00080240000,-10.00000,8.40000
,,,-0.00080220000,-9.80000,8.40000
,,,-0.00080200000,-9.80000,8.60000
,,,-0.00080180000,-9.80000,8.40000
,,,-0.00080160000,-10.00000,8.40000
,,,-0.00080140000,-9.80000,8.40000
,,,-0.00080120000,-10.00000,8.40000
,,,-0.00080100000,-9.80000,8.40000
,,,-0.00080080000,-9.80000,8.60000
,,,-0.00080060000,-9.80000,8.60000
,,,-0.00080040000,-9.80000,8.40000
,,,-0.00080020000,-10.00000,8.40000
,,,-0.00080000006,-9.80000,8.60000
,,,-0.00079980006,-9.80000,8.40000
,,,-0.00079960006,-9.80000,8.40000
,,,-0.00079940006,-9.80000,8.40000
,,,-0.00079920006,-9.80000,8.40000
,,,-0.00079900000,-9.80000,8.40000
,,,-0.00079880000,-9.80000,8.40000
,,,-0.00079860000,-9.80000,8.40000
,,,-0.00079840000,-9.80000,8.40000
,,,-0.00079820000,-9.80000,8.40000
,,,-0.00079800000,-9.80000,8.40000
,,,-0.00079780000,-9.80000,8.60000
,,,-0.00079760000,-9.80000,8.40000
,,,-0.00079740000,-9.80000,8.40000
,,,-0.00079720000,-9.80000,8.40000
,,,-0.00079700000,-10.00000,8.40000
,,,-0.00079680000,-9.80000,8.40000
,,,-0.00079660000,-9.80000,8.40000
,,,-0.00079640000,-9.80000,8.40000
,,,-0.00079620000,-9.80000,8.60000
,,,-0.00079600000,-9.60000,8.40000
,,,-0.00079580000,-9.60000,8.60000
,,,-0.00079560000,-9.40000,8.40000
,,,-0.00079540000,-9.40000,8.60000
,,,-0.00079520000,-9.20000,8.40000
,,,-0.00079500000,-9.00000,8.60000
,,,-0.00079480000,-9.00000,8.40000
,,,-0.00079460000,-8.80000,8.40000
,,,-0.00079440000,-8.60000,8.60000
,,,-0.00079420000,-8.60000,8.40000
,,,-0.00079400000,-8.40000,8.60000
,,,-0.00079380000,-8.20000,8.40000
,,,-0.00079360000,-8.20000,8.60000
,,,-0.00079340000,-8.00000,8.60000
,,,-0.00079320000,-7.80000,8.40000
,,,-0.00079300000,-7.80000,8.40000
,,,-0.00079280000,-7.60000,8.40000
,,,-0.00079260000,-7.60000,8.40000
,,,-0.00079240006,-7.40000,8.40000
,,,-0.00079220006,-7.40000,8.60000
,,,-0.00079200006,-7.00000,8.40000
,,,-0.00079180006,-7.00000,8.40000
,,,-0.00079160006,-6.80000,8.40000
,,,-0.00079140000,-6.60000,8.40000
,,,-0.00079120000,-6.60000,8.40000
,,,-0.00079100000,-6.20000,8.40000
,,,-0.00079080000,-6.20000,8.60000
,,,-0.00079060000,-6.20000,8.40000
,,,-0.00079040000,-6.20000,8.60000
,,,-0.00079020000,-6.00000,8.40000
,,,-0.00079000000,-6.00000,8.40000
,,,-0.00078980000,-6.00000,8.40000
,,,-0.00078960000,-5.80000,8.60000
,,,-0.00078940000,-5.60000,8.40000
,,,-0.00078920000,-5.40000,8.40000
,,,-0.00078900000,-5.20000,8.60000
,,,-0.00078880000,-5.20000,8.40000
,,,-0.00078860000,-5.20000,8.60000
,,,-0.00078840000,-5.00000,8.40000
