data/SDS00004.CSV

Record Length,9000,,Source,CH1,CH2
Sample Interval,CH1:0.0000002000000 CH2:0.0000002000000,,Second,Volt,Volt
Vertical Units,CH1:V CH2:V,,-0.00090000000,-9.80000,8.40000
Vertical Scale,CH1:5.00 CH2:5.00,,-0.00089980000,-9.80000,8.40000
Vertical Offset,CH1:4.40000 CH2:-10.00000,,-0.00089960000,-10.00000,8.40000
Horizontal Units,s,,-0.00089940006,-9.80000,8.60000
Horizontal Scale,0.0001000000,,-0.00089920006,-9.80000,8.40000
Model Number,SDS1072CML,,-0.00089900006,-10.00000,8.60000
Serial Number,SDS100P2150690,,-0.00089880006,-9.80000,8.60000
Software Version,5.01.02.29,,-0.00089860006,-10.00000,8.60000
,,,-0.00089840000,-10.00000,8.40000
,,,-0.00089820000,-9.80000,8.40000
,,,-0.00089800000,-9.80000,8.40000
,,,-0.00089780000,-9.80000,8.40000
,,,-0.00089760000,-10.00000,8.40000
,,,-0.00089740000,-9.80000,8.40000
,,,-0.00089720000,-10.00000,8.60000
,,,-0.00089700000,-10.00000,8.40000
,,,-0.00089680000,-10.00000,8.60000
,,,-0.00089660000,-9.80000,8.40000
,,,-0.00089640000,-10.00000,8.40000
,,,-0.00089620000,-9.80000,8.40000
,,,-0.00089600000,-9.80000,8.40000
,,,-0.00089580000,-9.80000,8.40000
,,,-0.00089560000,-10.00000,8.40000
,,,-0.00089540000,-9.80000,8.40000
,,,-0.00089520000,-10.00000,8.40000
,,,-0.00089500000,-10.00000,8.60000
,,,-0.00089480000,-10.00000,8.60000
,,,-0.00089460000,-10.00000,8.40000
,,,-0.00089440000,-9.80000,8.60000
,,,-0.00089420000,-10.00000,8.60000
,,,-0.00089400000,-9.80000,8.60000
,,,-0.00089380000,-10.00000,8.40000
,,,-0.00089360000,-9.80000,8.60000
,,,-0.00089340000,-9.80000,8.40000
,,,-0.00089320000,-9.80000,8.40000
,,,-0.00089300000,-10.00000,-7.20000
,,,-0.00089280000,-10.00000,-7.40000
,,,-0.00089260000,-10.00000,-7.20000
,,,-0.00089240000,-10.00000,-7.20000
,,,-0.00089220000,-10.00000,-7.20000
,,,-0.00089200000,-9.80000,-7.40000
,,,-0.00089180006,-9.80000,-7.20000
,,,-0.00089160006,-9.60000,-7.20000
,,,-0.00089140006,-9.40000,-7.20000
,,,-0.00089120006,-9.40000,-7.20000
,,,-0.00089100006,-9.20000,-7.20000
,,,-0.00089080000,-9.00000,-7.20000
,,,-0.00089060000,-9.00000,-7.20000
,,,-0.00089040000,-8.80000,-7.20000
,,,-0.00089020000,-8.60000,-7.20000
,,,-0.00089000000,-8.60000,-7.20000
,,,-0.00088980000,-8.60000,-7.20000
,,,-0.00088960000,-8.20000,-7.20000
,,,-0.00088940000,-8.20000,-7.20000
,,,-0.00088920000,-8.00000,-7.20000
,,,-0.00088900000,-7.80000,-7.20000
,,,-0.00088880000,-7.80000,-7.20000
,,,-0.00088860000,-7.60000,-7.20000
,,,-0.00088840000,-7.60000,-7.20000
,,,-0.00088820000,-7.40000,-7.20000
,,,-0.00088800000,-7.20000,-7.20000
,,,-0.00088780000,-7.00000,-7.20000
,,,-0.00088760000,-7.00000,-7.20000
,,,-0.00088740000,-6.80000,-7.20000
,,,-0.00088720000,-6.60000,-7.40000
,,,-0.00088700000,-6.60000,-7.20000
,,,-0.00088680000,-6.20000,-7.20000
,,,-0.00088660000,-6.20000,-7.20000
,,,-0.00088640000,-6.20000,-7.20000
,,,-0.00088620000,-6.20000,-7.20000
,,,-0.00088600000,-6.00000,-7.40000
,,,-0.00088580000,-6.00000,-7.40000
,,,-0.00088560000,-5.80000,-7.20000
,,,-0.00088540000,-5.60000,-7.40000
,,,-0.00088520000,-5.60000,-7.40000
,,,-0.00088500000,-5.40000,-7.20000
,,,-0.00088480000,-5.20000,-7.20000
,,,-0.00088460000,-5.20000,-7.40000
,,,-0.00088440000,-5.00000,-7.20000
,,,-0.00088420006,-4.80000,-7.20000
,,,-0.00088400006,-4.80000,-7.20000
,,,-0.00088380006,-4.60000,-7.20000
,,,-0.00088360006,-4.40000,-7.40000
,,,-0.00088340006,-4.40000,-7.40000
,,,-0.00088320000,-4.20000,-7.40000
,,,-0.00088300000,-4.00000,-7.40000
,,,-0.00088280000,-4.00000,-7.40000
,,,-0.00088260000,-3.80000,-7.40000
,,,-0.00088240000,-3.60000,-7.40000
,,,-0.00088220000,-3.60000,-7.40000
,,,-0.00088200000,-3.20000,-7.40000
,,,-0.00088180000,-3.20000,-7.40000
,,,-0.00088160000,-3.20000,-7.40000
,,,-0.00088140000,-2.80000,-7.20000
,,,-0.00088120000,-2.80000,-7.40000
,,,-0.00088100000,-2.80000,-7.40000
,,,-0.00088080000,-2.60000,-7.40000
,,,-0.00088060000,-2.60000,-7.40000
,,,-0.00088040000,-2.40000,-7.40000
,,,-0.00088020000,-2.20000,-7.40000
,,,-0.00088000000,-2.20000,-7.40000
,,,-0.00087980000,-2.00000,-7.40000
,,,-0.00087960000,-1.80000,-7.40000
,,,-0.00087940000,-1.80000,-7.40000
,,,-0.00087920000,-1.60000,-7.40000
,,,-0.00087900000,-1.40000,-7.40000
,,,-0.00087880000,-1.40000,-7.40000
,,,-0.00087860000,-1.40000,-7.40000
,,,-0.00087840000,-1.00000,-7.40000
,,,-0.00087820000,-1.00000,-7.40000
,,,-0.00087800000,-0.80000,-7.40000
,,,-0.00087780000,-0.60000,-7.40000
,,,-0.00087760000,-0.60000,-7.40000
,,,-0.00087740000,-0.40000,-7.40000
,,,-0.00087720000,-0.20000,-7.40000
,,,-0.00087700000,-0.20000,-7.40000
,,,-0.00087680000,0.20000,-7.40000
,,,-0.00087660006,0.20000,-7.40000
,,,-0.00087640006,0.40000,-7.40000
,,,-0.00087620006,0.40000,-7.40000
,,,-0.00087600006,0.80000,-7.40000
,,,-0.00087580006,0.80000,-7.40000
,,,-0.00087560006,1.00000,-7.40000
,,,-0.00087540000,1.00000,-7.40000
,,,-0.00087520000,1.20000,-7.40000
,,,-0.00087500000,1.20000,-7.40000
,,,-0.00087480000,1.20000,-7.40000
,,,-0.00087460000,1.60000,-7.40000
,,,-0.00087440000,1.60000,-7.40000
,,,-0.00087420000,1.80000,-7.40000
,,,-0.00087400000,1.80000,-7.40000
,,,-0.00087380000,2.00000,-7.40000
,,,-0.00087360000,2.20000,-7.40000
,,,-0.00087340000,2.40000,-7.60000
,,,-0.00087320000,2.40000,-7.40000
,,,-0.00087300000,2.60000,-7.40000
,,,-0.00087280000,2.80000,-7.60000
,,,-0.00087260000,3.00000,-7.40000
,,,-0.00087240000,3.20000,-7.40000
,,,-0.00087220000,3.20000,-7.40000
,,,-0.00087200000,3.20000,-7.40000
,,,-0.00087180000,3.40000,-7.40000
,,,-0.00087160000,3.60000,-7.40000
,,,-0.00087140000,3.80000,-7.40000
,,,-0.00087120000,4.00000,-7.60000
,,,-0.00087100000,4.00000,-7.40000
,,,-0.00087080000,4.20000,-7.40000
,,,-0.00087060000,4.60000,-7.40000
,,,-0.00087040000,5.00000,-7.60000
,,,-0.00087020000,6.60000,-7.40000
,,,-0.00087000000,8.20000,-7.40000
,,,-0.00086980000,10.00000,-7.60000
,,,-0.00086960000,10.80000,-7.60000
,,,-0.00086940000,10.80000,-7.40000
,,,-0.00086920000,10.80000,-7.40000
,,,-0.00086900000,10.80000,-7.40000
,,,-0.00086880006,10.80000,-7.40000
,,,-0.00086860006,10.80000,-7.40000
,,,-0.00086840006,10.80000,-7.60000
,,,-0.00086820006,10.80000,-7.40000
,,,-0.00086800006,10.80000,-7.60000
,,,-0.00086780000,10.80000,-7.40000
,,,-0.00086760000,10.80000,-7.40000
,,,-0.00086740000,10.80000,-7.40000
,,,-0.00086720000,10.80000,-7.60000
,,,-0.00086700000,10.80000,-7.60000
,,,-0.00086680000,10.80000,-7.60000
,,,-0.00086660000,10.80000,-7.60000
,,,-0.00086640000,10.80000,-7.60000
,,,-0.00086620000,10.80000,-7.60000
,,,-0.00086600000,10.80000,-7.60000
,,,-0.00086580000,10.80000,-7.40000
,,,-0.00086560000,10.80000,-7.40000
,,,-0.00086540000,10.80000,-7.60000
,,,-0.00086520000,10.80000,-7.60000
,,,-0.00086500000,10.80000,-7.60000
,,,-0.00086480000,10.80000,-7.60000
,,,-0.00086460000,10.80000,-7.40000
,,,-0.00086440000,10.80000,-7.40000
,,,-0.00086420000,10.80000,-7.60000
,,,-0.00086400000,10.80000,-7.60000
,,,-0.00086380000,10.80000,-7.60000
,,,-0.00086360000,10.80000,-7.60000
,,,-0.00086340000,10.80000,-7.60000
,,,-0.00086320000,10.80000,-7.60000
,,,-0.00086300000,10.80000,-7.60000
,,,-0.00086280000,10.80000,-7.40000
,,,-0.00086260000,10.80000,-7.60000
,,,-0.00086240000,10.80000,-7.40000
,,,-0.00086220000,10.80000,-7.60000
,,,-0.00086200000,10.80000,-7.40000
,,,-0.00086180000,10.80000,-7.60000
,,,-0.00086160000,10.80000,-7.60000
,,,-0.00086140000,10.80000,-7.40000
,,,-0.00086120006,10.80000,-7.60000
,,,-0.00086100006,10.80000,-7.40000
,,,-0.00086080006,10.80000,-7.60000
,,,-0.00086060006,10.80000,-7.60000
,,,-0.00086040006,10.80000,-7.60000
,,,-0.00086020000,10.80000,-7.60000
,,,-0.00086000000,10.80000,-7.60000
,,,-0.00085980000,11.00000,-7.60000
,,,-0.00085960000,11.00000,-7.60000
,,,-0.00085940000,10.80000,-7.60000
,,,-0.00085920000,11.00000,-7.60000
,,,-0.00085900000,11.00000,-7.60000
,,,-0.00085880000,11.00000,-7.40000
,,,-0.00085860000,10.80000,-7.40000
,,,-0.00085840000,10.80000,-7.40000
,,,-0.00085820000,10.80000,-7.60000
,,,-0.00085800000,11.00000,-7.60000
,,,-0.00085780000,11.00000,-7.60000
,,,-0.00085760000,10.80000,-7.60000
,,,-0.00085740000,11.00000,-7.60000
,,,-0.00085720000,11.00000,-7.60000
,,,-0.00085700000,11.00000,-7.60000
,,,-0.00085680000,10.80000,-7.60000
,,,-0.00085660000,11.00000,-7.60000
,,,-0.00085640000,11.00000,-7.60000
,,,-0.00085620000,10.80000,-7.40000
,,,-0.00085600000,11.00000,-7.60000
,,,-0.00085580000,10.80000,-7.60000
,,,-0.00085560000,10.80000,-7.60000
,,,-0.00085540000,10.80000,-7.60000
,,,-0.00085520000,11.00000,-7.60000
,,,-0.00085500000,10.80000,-7.60000
,,,-0.00085480000,11.00000,-7.60000
,,,-0.00085460000,11.00000,-7.60000
,,,-0.00085440000,10.80000,-7.60000
,,,-0.00085420000,11.00000,-7.60000
,,,-0.00085400000,11.00000,-7.60000
,,,-0.00085380000,10.80000,-7.60000
,,,-0.00085360006,11.00000,-7.60000
,,,-0.00085340006,10.80000,-7.60000
,,,-0.00085320006,11.00000,-7.60000
,,,-0.00085300006,11.00000,-7.60000
,,,-0.00085280006,10.80000,-7.60000
,,,-0.00085260000,10.80000,-7.60000
,,,-0.00085240000,11.00000,-7.60000
,,,-0.00085220000,11.00000,-7.60000
,,,-0.00085200000,10.80000,-7.60000
,,,-0.00085180000,11.00000,-7.60000
,,,-0.00085160000,11.00000,-7.60000
,,,-0.00085140000,11.00000,-7.60000
,,,-0.00085120000,11.00000,-7.60000
,,,-0.00085100000,11.00000,-7.60000
,,,-0.00085080000,11.00000,-7.60000
,,,-0.00085060000,11.00000,-7.60000
,,,-0.00085040000,11.00000,-7.60000
,,,-0.00085020000,11.00000,-7.60000
,,,-0.00085000000,11.00000,-7.60000
,,,-0.00084980000,11.00000,-7.60000
,,,-0.00084960000,11.00000,-7.60000
,,,-0.00084940000,11.00000,-7.60000
,,,-0.00084920000,11.00000,-7.60000
,,,-0.00084900000,10.80000,-7.60000
,,,-0.00084880000,11.00000,-7.60000
,,,-0.00084860000,11.20000,-7.60000
,,,-0.00084840000,11.00000,-7.60000
,,,-0.00084820000,11.00000,-7.60000
,,,-0.00084800000,11.00000,-7.60000
,,,-0.00084780000,10.80000,-7.60000
,,,-0.00084760000,11.00000,-7.60000
,,,-0.00084740000,11.00000,-7.60000
,,,-0.00084720000,11.00000,-7.60000
,,,-0.00084700000,11.00000,-7.60000
,,,-0.00084680000,10.80000,-7.60000
,,,-0.00084660000,11.00000,-7.60000
,,,-0.00084640000,11.00000,-7.60000
,,,-0.00084620000,11.00000,-7.60000
,,,-0.00084600000,11.00000,-7.60000
,,,-0.00084580006,10.80000,-7.60000
,,,-0.00084560006,10.80000,-7.60000
,,,-0.00084540006,11.00000,-7.60000
,,,-0.00084520006,11.00000,-7.60000
,,,-0.00084500006,11.00000,-7.60000
,,,-0.00084480000,11.00000,-7.60000
,,,-0.00084460000,11.00000,-7.60000
,,,-0.00084440000,11.00000,-7.60000
,,,-0.00084420000,10.80000,-7.60000
,,,-0.00084400000,11.00000,-7.60000
,,,-0.00084380000,11.00000,-7.60000
,,,-0.00084360000,11.00000,-7.60000
,,,-0.00084340000,11.00000,-7.60000
,,,-0.00084320000,11.00000,-7.60000
,,,-0.00084300000,11.00000,-7.60000
,,,-0.00084280000,11.00000,-7.60000
,,,-0.00084260000,11.00000,-7.60000
,,,-0.00084240000,10.80000,-7.60000
,,,-0.00084220000,10.80000,-7.60000
,,,-0.00084200000,11.00000,-7.60000
,,,-0.00084180000,11.00000,-7.60000
,,,-0.00084160000,11.00000,-7.60000
,,,-0.00084140000,11.00000,-7.60000
,,,-0.00084120000,11.00000,-7.60000
,,,-0.00084100000,11.00000,-7.60000
,,,-0.00084080000,11.00000,-7.60000
,,,-0.00084060000,11.00000,-7.60000
,,,-0.00084040000,11.00000,-7.60000
,,,-0.00084020000,11.00000,-7.60000
,,,-0.00084000000,11.00000,-7.60000
,,,-0.00083980000,11.00000,-7.60000
,,,-0.00083960000,10.80000,-7.60000
,,,-0.00083940000,11.00000,-7.60000
,,,-0.00083920000,11.00000,-7.60000
,,,-0.00083900000,11.00000,-7.60000
,,,-0.00083880000,11.00000,-7.60000
,,,-0.00083860000,11.00000,-7.60000
,,,-0.00083840000,11.00000,-7.60000
,,,-0.00083820006,11.00000,-7.60000
,,,-0.00083800006,11.00000,-7.60000
,,,-0.00083780006,10.80000,-7.60000
,,,-0.00083760006,11.00000,-7.60000
,,,-0.00083740006,11.00000,-7.60000
,,,-0.00083720000,11.00000,-7.60000
,,,-0.00083700000,11.00000,-7.60000
,,,-0.00083680000,11.00000,-7.60000
,,,-0.00083660000,11.00000,-7.60000
,,,-0.00083640000,11.00000,-7.60000
,,,-0.00083620000,11.00000,-7.60000
,,,-0.00083600000,11.00000,-7.60000
,,,-0.00083580000,11.00000,-7.60000
,,,-0.00083560000,11.00000,-7.60000
,,,-0.00083540000,11.00000,-7.60000
,,,-0.00083520000,11.00000,-7.60000
,,,-0.00083500000,11.00000,-7.60000
,,,-0.00083480000,11.00000,-7.60000
,,,-0.00083460000,11.00000,-7.60000
,,,-0.00083440000,11.00000,-7.60000
,,,-0.00083420000,11.00000,-7.60000
,,,-0.00083400000,11.00000,-7.60000
,,,-0.00083380000,11.00000,-7.60000
,,,-0.00083360000,11.00000,-7.60000
,,,-0.00083340000,11.00000,-7.60000
,,,-0.00083320000,11.00000,-7.60000
,,,-0.00083300000,11.00000,-7.60000
,,,-0.00083280000,11.00000,-7.60000
,,,-0.00083260000,11.00000,-7.60000
,,,-0.00083240000,11.00000,-7.60000
,,,-0.00083220000,11.00000,-7.60000
,,,-0.00083200000,11.00000,-7.60000
,,,-0.00083180000,11.00000,-7.60000
,,,-0.00083160000,11.00000,-7.60000
,,,-0.00083140000,11.00000,-7.60000
,,,-0.00083120000,11.00000,-7.60000
,,,-0.00083100000,11.00000,-7.60000
,,,-0.00083080000,11.00000,-7.60000
,,,-0.00083060006,11.00000,-7.60000
,,,-0.00083040006,11.00000,-7.60000
,,,-0.00083020006,11.00000,-7.60000
,,,-0.00083000006,11.00000,-7.60000
,,,-0.00082980006,11.00000,-7.60000
,,,-0.00082960000,10.80000,-7.60000
,,,-0.00082940000,11.00000,-7.60000
,,,-0.00082920000,11.00000,-7.60000
,,,-0.00082900000,11.00000,-7.60000
,,,-0.00082880000,11.00000,-7.60000
,,,-0.00082860000,10.80000,-7.60000
,,,-0.00082840000,11.00000,-7.60000
,,,-0.00082820000,11.00000,-7.60000
,,,-0.00082800000,10.80000,-7.60000
,,,-0.00082780000,11.00000,-7.60000
,,,-0.00082760000,11.20000,-7.60000
,,,-0.00082740000,11.00000,-7.60000
,,,-0.00082720000,11.00000,-7.60000
,,,-0.00082700000,11.00000,-7.60000
,,,-0.00082680000,11.00000,-7.60000
,,,-0.00082660000,11.00000,-7.60000
,,,-0.00082640000,11.00000,-7.60000
,,,-0.00082620000,11.00000,-7.60000
,,,-0.00082600000,11.00000,-7.60000
,,,-0.00082580000,11.00000,-7.60000
,,,-0.00082560000,11.00000,-7.60000
,,,-0.00082540000,10.80000,-7.60000
,,,-0.00082520000,11.00000,-7.60000
,,,-0.00082500000,11.00000,-7.60000
,,,-0.00082480000,11.00000,-7.60000
,,,-0.00082460000,10.80000,-7.60000
,,,-0.00082440000,11.00000,-7.60000
,,,-0.00082420000,11.00000,-7.60000
,,,-0.00082400000,11.00000,-7.60000
,,,-0.00082380000,11.00000,-7.60000
,,,-0.00082360000,11.00000,-7.60000
,,,-0.00082340000,11.00000,-7.60000
,,,-0.00082320000,11.00000,-7.60000
,,,-0.00082300006,11.00000,-7.60000
,,,-0.00082280006,11.00000,-7.60000
,,,-0.00082260006,11.00000,-7.60000
,,,-0.00082240006,11.00000,-7.60000
,,,-0.00082220006,11.00000,-7.60000
,,,-0.00082200000,11.00000,-7.60000
,,,-0.00082180000,11.00000,-7.60000
,,,-0.00082160000,11.00000,-7.60000
,,,-0.00082140000,11.00000,-7.60000
,,,-0.00082120000,11.00000,-7.60000
,,,-0.00082100000,11.00000,-7.60000
,,,-0.00082080000,11.00000,-7.60000
,,,-0.00082060000,11.00000,-7.60000
,,,-0.00082040000,11.00000,-7.60000
,,,-0.00082020000,11.00000,-7.60000
,,,-0.00082000000,11.00000,-7.60000
,,,-0.00081980000,10.80000,-7.60000
,,,-0.00081960000,11.00000,-7.60000
,,,-0.00081940000,11.00000,-7.60000
,,,-0.00081920000,11.00000,-7.60000
,,,-0.00081900000,11.00000,-7.60000
,,,-0.00081880000,11.00000,-7.60000
,,,-0.00081860000,11.00000,-7.60000
,,,-0.00081840000,11.00000,-7.60000
,,,-0.00081820000,11.00000,-7.60000
,,,-0.00081800000,11.00000,-7.60000
,,,-0.00081780000,11.00000,-7.60000
,,,-0.00081760000,11.00000,-7.60000
,,,-0.00081740000,11.00000,-7.60000
,,,-0.00081720000,11.00000,-7.60000
,,,-0.00081700000,11.00000,-7.60000
,,,-0.00081680000,11.00000,-7.60000
,,,-0.00081660000,11.00000,-7.60000
,,,-0.00081640000,11.00000,-7.60000
,,,-0.00081620000,11.00000,-7.60000
,,,-0.00081600000,11.00000,-7.60000
,,,-0.00081580000,11.00000,-7.60000
,,,-0.00081560000,11.00000,-7.60000
,,,-0.00081540000,11.00000,-7.60000
,,,-0.00081520006,11.00000,-7.60000
,,,-0.00081500006,11.20000,-7.60000
,,,-0.00081480006,11.00000,-7.60000
,,,-0.00081460006,11.00000,-7.60000
,,,-0.00081440000,11.00000,-7.60000
,,,-0.00081420000,11.00000,-7.60000
,,,-0.00081400000,11.00000,-7.60000
,,,-0.00081380000,11.20000,-7.60000
,,,-0.00081360000,11.00000,-7.60000
,,,-0.00081340000,11.00000,-7.60000
,,,-0.00081320000,11.00000,-7.60000
,,,-0.00081300000,11.00000,-7.60000
,,,-0.00081280000,11.00000,-7.60000
,,,-0.00081260000,11.00000,-7.60000
,,,-0.00081240000,11.00000,-7.60000
,,,-0.00081220000,11.00000,-7.60000
,,,-0.00081200000,11.00000,-7.60000
,,,-0.00081180000,11.00000,-7.60000
,,,-0.00081160000,11.00000,-7.60000
,,,-0.00081140000,11.00000,-7.60000
,,,-0.00081120000,11.20000,-7.60000
,,,-0.00081100000,11.00000,-7.60000
,,,-0.00081080000,11.00000,-7.60000
,,,-0.00081060000,11.00000,-7.60000
,,,-0.00081040000,11.00000,-7.60000
,,,-0.00081020000,11.00000,-7.60000
,,,-0.00081000000,11.00000,-7.60000
,,,-0.00080980000,11.00000,-7.60000
,,,-0.00080960000,11.20000,-7.60000
,,,-0.00080940000,11.00000,-7.60000
,,,-0.00080920000,11.00000,-7.60000
,,,-0.00080900000,11.20000,-7.60000
,,,-0.00080880000,11.00000,-7.60000
,,,-0.00080860000,11.00000,-7.60000
,,,-0.00080840000,11.00000,-7.60000
,,,-0.00080820000,11.00000,-7.60000
,,,-0.00080800000,11.00000,-7.60000
,,,-0.00080780000,11.00000,-7.60000
,,,-0.00080760006,11.00000,-7.60000
,,,-0.00080740006,11.00000,-7.60000
,,,-0.00080720006,11.00000,-7.60000
,,,-0.00080700006,11.00000,-7.60000
,,,-0.00080680006,11.00000,-7.60000
,,,-0.00080660000,11.00000,-7.60000
,,,-0.00080640000,11.00000,-7.60000
,,,-0.00080620000,11.00000,-7.60000
,,,-0.00080600000,11.00000,-7.60000
,,,-0.00080580000,11.00000,-7.60000
,,,-0.00080560000,11.00000,-7.60000
,,,-0.00080540000,11.00000,-7.60000
,,,-0.00080520000,11.00000,-7.60000
,,,-0.00080500000,11.00000,-7.60000
,,,-0.00080480000,11.00000,-7.60000
,,,-0.00080460000,11.00000,-7.60000
,,,-0.00080440000,11.00000,-7.60000
,,,-0.00080420000,11.00000,-7.60000
,,,-0.00080400000,11.00000,-7.80000
,,,-0.00080380000,11.20000,-7.60000
,,,-0.00080360000,11.20000,-7.60000
,,,-0.00080340000,11.00000,-7.80000
,,,-0.00080320000,11.20000,-7.60000
,,,-0.00080300000,11.20000,-7.60000
,,,-0.00080280000,11.00000,-7.60000
,,,-0.00080260000,11.00000,-7.60000
,,,-0.00080240000,11.00000,-7.60000
,,,-0.00080220000,11.20000,-7.60000
,,,-0.00080200000,11.00000,-7.60000
,,,-0.00080180000,11.00000,-7.60000
,,,-0.00080160000,11.00000,-7.60000
,,,-0.00080140000,11.00000,-7.60000
,,,-0.00080120000,11.00000,-7.60000
,,,-0.00080100000,11.00000,-7.60000
,,,-0.00080080000,11.00000,-7.60000
,,,-0.00080060000,11.00000,-7.60000
,,,-0.00080040000,11.00000,-7.60000
,,,-0.00080020000,11.00000,-7.60000
,,,-0.00080000006,11.20000,-7.60000
,,,-0.00079980006,11.00000,-7.60000
,,,-0.00079960006,11.00000,-7.60000
,,,-0.00079940006,11.20000,-7.60000
,,,-0.00079920006,11.20000,-7.60000
,,,-0.00079900000,11.00000,-7.60000
,,,-0.00079880000,11.00000,-7.60000
,,,-0.00079860000,11.00000,-7.60000
,,,-0.00079840000,11.20000,-7.60000
,,,-0.00079820000,11.00000,-7.60000
,,,-0.00079800000,11.00000,-7.60000
,,,-0.00079780000,11.00000,-7.60000
,,,-0.00079760000,11.00000,-7.60000
,,,-0.00079740000,11.20000,-7.60000
,,,-0.00079720000,11.00000,-7.60000
,,,-0.00079700000,11.00000,-7.60000
,,,-0.00079680000,11.00000,-7.60000
,,,-0.00079660000,11.20000,-7.60000
,,,-0.00079640000,11.20000,-7.60000
,,,-0.00079620000,11.00000,-7.60000
,,,-0.00079600000,11.00000,-7.60000
,,,-0.00079580000,11.00000,-7.60000
,,,-0.00079560000,11.00000,-7.60000
,,,-0.00079540000,11.00000,-7.80000
,,,-0.00079520000,11.00000,-7.60000
,,,-0.00079500000,11.20000,-7.60000
,,,-0.00079480000,11.20000,-7.60000
,,,-0.00079460000,11.00000,-7.60000
,,,-0.00079440000,11.20000,-7.60000
,,,-0.00079420000,11.20000,-7.60000
,,,-0.00079400000,11.20000,-7.60000
,,,-0.00079380000,11.00000,-7.60000
,,,-0.00079360000,11.00000,-7.60000
,,,-0.00079340000,11.20000,-7.60000
,,,-0.00079320000,11.20000,-7.60000
,,,-0.00079300000,11.20000,-7.60000
,,,-0.00079280000,11.20000,-7.60000
,,,-0.00079260000,11.20000,-7.60000
,,,-0.00079240006,11.00000,-7.60000
,,,-0.00079220006,11.20000,-7.60000
,,,-0.00079200006,11.00000,-7.60000
,,,-0.00079180006,11.00000,-7.60000
,,,-0.00079160006,11.20000,-7.60000
,,,-0.00079140000,11.00000,-7.60000
,,,-0.00079120000,11.20000,-7.60000
,,,-0.00079100000,11.00000,-7.80000
,,,-0.00079080000,11.00000,-7.60000
